visualizations
…
Sometimes it is difficult to find the subset with the exact gene name one wishes to find. In this case, it is better to search by entrez_ID. For example, a recent paper describes gene knockdown of NRF2 increases chemosensitivity in certain types of cancer. It might be interesting to see what interactions knockdown of this gene has on other cancer cell lines. However, searching by filter(gene_Name == “NRF2”) will not yield any results. We know from NCBI that the Entrez ID for this gene is “4780” and it is possible to search this dataset by that criteria. Here it can be shown that the gene name for NRF2 in the rnai dataset is NFE2L2.

#find cell lines with dependency corresponding to "entrez_ID == "4780"
ent_ID_NRF2 <- rnai %>% 
                select(entrez_ID, cell_Line, gene_Name, dependency) %>%
                filter(entrez_ID == "4780") 

ent_ID_NRF2
#> # A tibble: 712 x 4
#>    entrez_ID cell_Line                              gene_Name dependency
#>    <chr>     <chr>                                  <chr>          <dbl>
#>  1 4780      127399_SOFT_TISSUE                     NFE2L2        0.0788
#>  2 4780      1321N1_CENTRAL_NERVOUS_SYSTEM          NFE2L2       -0.105 
#>  3 4780      143B_BONE                              NFE2L2        0.0617
#>  4 4780      184A1_BREAST                           NFE2L2       -0.0333
#>  5 4780      184B5_BREAST                           NFE2L2       -0.0360
#>  6 4780      22RV1_PROSTATE                         NFE2L2        0.116 
#>  7 4780      2313287_STOMACH                        NFE2L2       -0.0752
#>  8 4780      600MPE_BREAST                          NFE2L2       -0.195 
#>  9 4780      697_HAEMATOPOIETIC_AND_LYMPHOID_TISSUE NFE2L2        0.0128
#> 10 4780      769P_KIDNEY                            NFE2L2       -0.0951
#> # … with 702 more rows

Below the highest dependency scores via RNAI knock down of a specific gene, NFE2L2 will be obtained and the cancer cell lines associated with those values will be listed. It appears that the knockdown of this gene is strongly associated with cell death with in lung and kidney cancer cell lines.

#find cell lines with dependency for "NFE2L2" and select greatest dep scores
top_DS_NFE2L2_RNAI <- rnai %>% 
                        select(cell_Line, gene_Name, dependency) %>%
                        filter(gene_Name == "NFE2L2") %>% 
                        arrange(dependency)

top_DS_NFE2L2_RNAI 
#> # A tibble: 712 x 3
#>    cell_Line     gene_Name dependency
#>    <chr>         <chr>          <dbl>
#>  1 NCIH2066_LUNG NFE2L2        -1.29 
#>  2 NCIH2122_LUNG NFE2L2        -0.886
#>  3 CAKI2_KIDNEY  NFE2L2        -0.865
#>  4 NCIH1792_LUNG NFE2L2        -0.860
#>  5 NCIH28_PLEURA NFE2L2        -0.802
#>  6 A498_KIDNEY   NFE2L2        -0.779
#>  7 LC1SQSF_LUNG  NFE2L2        -0.743
#>  8 LK2_LUNG      NFE2L2        -0.689
#>  9 NCIH1437_LUNG NFE2L2        -0.603
#> 10 AU565_BREAST  NFE2L2        -0.601
#> # … with 702 more rows

If we would like to obtain the top 10 lowest dependency scores for a particular cell line (for example NCIH2066_LUNG) along with the genes associated with those values:

#find genes with dep for cell_Line == "NCIH2066_LUNG", sort by ascending
top_DS_NCIH2066_LUNG_RNAI <- rnai %>% 
                                select(cell_Line, gene_Name, dependency) %>%
                                filter(cell_Line == "NCIH2066_LUNG") %>% 
                                arrange(dependency)

top_DS_NCIH2066_LUNG_RNAI
#> # A tibble: 17,309 x 3
#>    cell_Line     gene_Name dependency
#>    <chr>         <chr>          <dbl>
#>  1 NCIH2066_LUNG KIF11          -3.46
#>  2 NCIH2066_LUNG ATP6V0C        -3.02
#>  3 NCIH2066_LUNG CKAP5          -3.02
#>  4 NCIH2066_LUNG CASP8AP2       -2.87
#>  5 NCIH2066_LUNG RAN            -2.81
#>  6 NCIH2066_LUNG SF3B2          -2.76
#>  7 NCIH2066_LUNG USP39          -2.72
#>  8 NCIH2066_LUNG SNRNP200       -2.65
#>  9 NCIH2066_LUNG TACC3          -2.61
#> 10 NCIH2066_LUNG MAD2L1         -2.59
#> # … with 17,299 more rows

Below shows the most significant genes that deplete cancer cell lines upon knockdown and their dependency scores for the entire rnai data.

# select `rnai` columns cell_Line, gene_Name, dependency with greatest dep score
greatest_DS_Gene_RNAI <- rnai %>% 
                            select(cell_Line, gene_Name, dependency) %>% 
                            arrange(dependency)

greatest_DS_Gene_RNAI
#> # A tibble: 12,324,008 x 3
#>    cell_Line                     gene_Name dependency
#>    <chr>                         <chr>          <dbl>
#>  1 SW1088_CENTRAL_NERVOUS_SYSTEM UBC            -5.93
#>  2 COV318_OVARY                  UBC            -5.42
#>  3 MEL285_UVEA                   PSMB5          -4.97
#>  4 MEL285_UVEA                   PSMA3          -4.79
#>  5 COLO678_LARGE_INTESTINE       NXF1           -4.74
#>  6 CW2_LARGE_INTESTINE           CTNNB1         -4.71
#>  7 COV318_OVARY                  PUF60          -4.65
#>  8 CCK81_LARGE_INTESTINE         MCL1           -4.60
#>  9 CW2_LARGE_INTESTINE           USP39          -4.60
#> 10 MEL285_UVEA                   VARS           -4.59
#> # … with 12,323,998 more rows

Below shows the least significant genes that induce cancer cell line vitality upon knockdown and their dependency scores for the entire rnai data. Unsurprisingly, we see high incidence of “TP53”, a well known cancer driver.

# select `rnai` columns cell_Line, gene_Name, dependency with lowest dep score
lowest_DS_Gene_RNAI <- rnai %>% 
                            select(cell_Line, gene_Name, dependency) %>% 
                            arrange(desc(dependency))

lowest_DS_Gene_RNAI
#> # A tibble: 12,324,008 x 3
#>    cell_Line                     gene_Name dependency
#>    <chr>                         <chr>          <dbl>
#>  1 SKNSH_AUTONOMIC_GANGLIA       TP53            2.77
#>  2 OVTOKO_OVARY                  TP53            2.38
#>  3 NB1_AUTONOMIC_GANGLIA         UBBP4           2.07
#>  4 RVH421_SKIN                   TP53            2.01
#>  5 SNU738_CENTRAL_NERVOUS_SYSTEM COPB2           1.96
#>  6 SNU1079_BILIARY_TRACT         TP53            1.95
#>  7 C32_SKIN                      TP53            1.93
#>  8 JHUEM2_ENDOMETRIUM            CDKN2A          1.92
#>  9 MEL285_UVEA                   TP53            1.91
#> 10 NCIH28_PLEURA                 MED12           1.89
#> # … with 12,323,998 more rows

Below we will apply some of the same selections as shown in the above examples on the crispr gene knockout dataset and observe the difference between that dataset and rnai. First we will look at the most significant dependency scores in the crispr dataset. As can be seen below, there is a different population of significant genes with the highest dependency score.

# select `crispr` columns cell_Line, gene_Name, dependency with greatest dep sc
greatest_DS_Gene_CRISPR <- crispr %>% 
                                select(cell_Line, gene_Name,dependency) %>% 
                                arrange(dependency)

greatest_DS_Gene_CRISPR
#> # A tibble: 9,839,772 x 3
#>    cell_Line                                gene_Name dependency
#>    <chr>                                    <chr>          <dbl>
#>  1 NCIH446_LUNG                             HIST2H3A       -3.18
#>  2 KE97_STOMACH                             BUB3           -3.09
#>  3 HT1376_URINARY_TRACT                     RAN            -3.04
#>  4 EN_ENDOMETRIUM                           HIST2H3A       -2.91
#>  5 KE97_STOMACH                             CCT3           -2.84
#>  6 HSB2_HAEMATOPOIETIC_AND_LYMPHOID_TISSUE  RAN            -2.82
#>  7 KE97_STOMACH                             SNRPD1         -2.80
#>  8 EN_ENDOMETRIUM                           RAN            -2.78
#>  9 SR786_HAEMATOPOIETIC_AND_LYMPHOID_TISSUE TBC1D3C        -2.75
#> 10 NCIH2887_LUNG                            RAN            -2.75
#> # … with 9,839,762 more rows

First we will look at the least significant (most cancer inducing) dependency scores in the crispr dataset.

# select `crispr` columns cell_Line, gene_Name, dependency, for lowest dep score
lowest_DS_Gene_CRISPR <- crispr %>% 
                            select(cell_Line, gene_Name, dependency) %>%
                            arrange(desc(dependency))

lowest_DS_Gene_CRISPR
#> # A tibble: 9,839,772 x 3
#>    cell_Line                                gene_Name dependency
#>    <chr>                                    <chr>          <dbl>
#>  1 TC32_BONE                                PTEN            5.44
#>  2 KE97_STOMACH                             UBA52           4.97
#>  3 KE97_STOMACH                             HNRNPA1         4.58
#>  4 KS1_CENTRAL_NERVOUS_SYSTEM               TP53            4.07
#>  5 KE97_STOMACH                             RPS27           4.03
#>  6 DKMG_CENTRAL_NERVOUS_SYSTEM              TP53            3.88
#>  7 SR786_HAEMATOPOIETIC_AND_LYMPHOID_TISSUE TBC1D3          3.71
#>  8 KE97_STOMACH                             HNRNPA3         3.64
#>  9 KE97_STOMACH                             PSME1           3.61
#> 10 KE97_STOMACH                             RPL34           3.31
#> # … with 9,839,762 more rows
…
