DepMap Dataset and Files — DepMapFiles • depmap
…
## Create the files table from one or dataset multiple dataset
## identifiers

DepMapFiles(24667905)
#> # A tibble: 56 × 7
#>    dataset_id       id name                     size download_url md5   mimetype
#>         <int>    <int> <chr>                   <dbl> <chr>        <chr> <chr>   
#>  1   24667905 43347678 README.txt             2.91e4 https://ndo… 4d2d… text/pl…
#>  2   24667905 43346361 AchillesCommonEssenti… 1.70e4 https://ndo… 1cbf… text/pl…
#>  3   24667905 43346367 AchillesHighVarianceG… 7.07e3 https://ndo… 3ac0… text/pl…
#>  4   24667905 43346370 AchillesNonessentialC… 1.15e4 https://ndo… 9b21… text/pl…
#>  5   24667905 43346379 AchillesScreenQCRepor… 3.16e5 https://ndo… c5dd… text/pl…
#>  6   24667905 43346382 AchillesSequenceQCRep… 4.37e5 https://ndo… 6ade… text/pl…
#>  7   24667905 43346391 AvanaGuideMap.csv      1.60e7 https://ndo… b694… text/pl…
#>  8   24667905 43346409 AvanaLogfoldChange.csv 3.17e9 https://ndo… 58b1… text/pl…
#>  9   24667905 43346505 AvanaRawReadcounts.csv 9.70e8 https://ndo… a7b5… text/pl…
#> 10   24667905 43346574 CRISPRGeneDependency.… 3.94e8 https://ndo… b581… text/pl…
#> # ℹ 46 more rows
DepMapFiles(my_dmset)
#> # A tibble: 56 × 7
#>    dataset_id       id name                     size download_url md5   mimetype
#>         <int>    <int> <chr>                   <dbl> <chr>        <chr> <chr>   
#>  1   24667905 43347678 README.txt             2.91e4 https://ndo… 4d2d… text/pl…
#>  2   24667905 43346361 AchillesCommonEssenti… 1.70e4 https://ndo… 1cbf… text/pl…
#>  3   24667905 43346367 AchillesHighVarianceG… 7.07e3 https://ndo… 3ac0… text/pl…
#>  4   24667905 43346370 AchillesNonessentialC… 1.15e4 https://ndo… 9b21… text/pl…
#>  5   24667905 43346379 AchillesScreenQCRepor… 3.16e5 https://ndo… c5dd… text/pl…
#>  6   24667905 43346382 AchillesSequenceQCRep… 4.37e5 https://ndo… 6ade… text/pl…
#>  7   24667905 43346391 AvanaGuideMap.csv      1.60e7 https://ndo… b694… text/pl…
#>  8   24667905 43346409 AvanaLogfoldChange.csv 3.17e9 https://ndo… 58b1… text/pl…
#>  9   24667905 43346505 AvanaRawReadcounts.csv 9.70e8 https://ndo… a7b5… text/pl…
#> 10   24667905 43346574 CRISPRGeneDependency.… 3.94e8 https://ndo… b581… text/pl…
#> # ℹ 46 more rows

DepMapFiles(c(24667905, 22765112))
#> # A tibble: 108 × 7
#>    dataset_id       id name                     size download_url md5   mimetype
#>         <int>    <int> <chr>                   <dbl> <chr>        <chr> <chr>   
#>  1   24667905 43347678 README.txt             2.91e4 https://ndo… 4d2d… text/pl…
#>  2   24667905 43346361 AchillesCommonEssenti… 1.70e4 https://ndo… 1cbf… text/pl…
#>  3   24667905 43346367 AchillesHighVarianceG… 7.07e3 https://ndo… 3ac0… text/pl…
#>  4   24667905 43346370 AchillesNonessentialC… 1.15e4 https://ndo… 9b21… text/pl…
#>  5   24667905 43346379 AchillesScreenQCRepor… 3.16e5 https://ndo… c5dd… text/pl…
#>  6   24667905 43346382 AchillesSequenceQCRep… 4.37e5 https://ndo… 6ade… text/pl…
#>  7   24667905 43346391 AvanaGuideMap.csv      1.60e7 https://ndo… b694… text/pl…
#>  8   24667905 43346409 AvanaLogfoldChange.csv 3.17e9 https://ndo… 58b1… text/pl…
#>  9   24667905 43346505 AvanaRawReadcounts.csv 9.70e8 https://ndo… a7b5… text/pl…
#> 10   24667905 43346574 CRISPRGeneDependency.… 3.94e8 https://ndo… b581… text/pl…
#> # ℹ 98 more rows
DepMapFiles(my_dmsets)
#> # A tibble: 108 × 7
#>    dataset_id       id name                     size download_url md5   mimetype
#>         <int>    <int> <chr>                   <dbl> <chr>        <chr> <chr>   
#>  1   24667905 43347678 README.txt             2.91e4 https://ndo… 4d2d… text/pl…
#>  2   24667905 43346361 AchillesCommonEssenti… 1.70e4 https://ndo… 1cbf… text/pl…
#>  3   24667905 43346367 AchillesHighVarianceG… 7.07e3 https://ndo… 3ac0… text/pl…
#>  4   24667905 43346370 AchillesNonessentialC… 1.15e4 https://ndo… 9b21… text/pl…
#>  5   24667905 43346379 AchillesScreenQCRepor… 3.16e5 https://ndo… c5dd… text/pl…
#>  6   24667905 43346382 AchillesSequenceQCRep… 4.37e5 https://ndo… 6ade… text/pl…
#>  7   24667905 43346391 AvanaGuideMap.csv      1.60e7 https://ndo… b694… text/pl…
#>  8   24667905 43346409 AvanaLogfoldChange.csv 3.17e9 https://ndo… 58b1… text/pl…
#>  9   24667905 43346505 AvanaRawReadcounts.csv 9.70e8 https://ndo… a7b5… text/pl…
#> 10   24667905 43346574 CRISPRGeneDependency.… 3.94e8 https://ndo… b581… text/pl…
#> # ℹ 98 more rows
…
